GRP_SORT_ORDER	GRP1_CODE_DESC	PARENT_MARKET_CODE	MARKET_GROUP_DESCRIPTION	PM_DAY_ROOM	PM_DAY_PERSON	PM_MONTH_ROOM	PM_MONTH_PERSON	PM_YEAR_ROOM	PM_YEAR_PRS	PM_DAY_CREV	PM_MONTH_CREV	PM_YEAR_CREV	PM_YEAR_ARR	PM_MONTH_ARR	PM_DAY_ARR	PM_DAY_PER_OCC	PM_MTD_PER_OCC	PM_YTD_PER_OCC	GRP2_CODE	SUB_GRP_CODE_DESC	DESCRIPTION	GRAPH_X_CODE	ROOMS_DAY	ROOM_REV_DAY	ROOMS_MTD	GUEST_MTD	ROOM_REV_MTD	ROOMS_YTD	GUEST_YTD	ROOM_REV_YTD	GUEST_DAY	ADR_DAY	ADR_MTD	ADR_YTD	PER_OCC_DAY	PER_OCC_MTD	PER_OCC_YTD
CMP	CMP	CMP	Complimentary	0	0	0	0	8	9	0	0	-10.943396	-1.3679245	0	0	0	0	.050910017	CMP	CMP	Complimentary	CMP / CMP	0	0	0	0	0	8	9	-10.943396226415	0	0	0	-1.3679245	0	0	.050910017
INT	INT	INT	Internal AR	0	0	0	0	2	4	0	0	1019.19811	509.599057	0	0	0	0	.012727504	A/R	A/R	Accounts Receivable	INT / A/R	0	0	0	0	0	0	0	356.603773584906	0	0	0	0	0	0	0
INT	INT	INT	Internal AR	0	0	0	0	2	4	0	0	1019.19811	509.599057	0	0	0	0	.012727504	CRS	CRS	Default for Marsha	INT / CRS	0	0	0	0	0	2	4	662.594339622641	0	0	0	331.297170	0	0	.012727504
OTH	OTH	OTH	Other	0	0	0	0	0	0	0	0	0	0	0	0	0	0	0	OTR	OTR	Other Rev. / Serv. Chg	OTH / OTR	0	0	0	0	0	0	0	0	0	0	0	0	0	0	0
TRA	TRA	TRA	Transient	1	1	123	241	925	1861	113.396226	23891.2547	159628.528	172.571382	194.237843	113.396226	.515463918	2.88191190	5.88647066	AAA	AAA	AAA	TRA / AAA	0	0	0	0	0	2	3	171.792452830189	0	0	0	85.8962264	0	0	.012727504
TRA	TRA	TRA	Transient	1	1	123	241	925	1861	113.396226	23891.2547	159628.528	172.571382	194.237843	113.396226	.515463918	2.88191190	5.88647066	ADP	ADP	Advance Purchase	TRA / ADP	0	0	10	20	1657.028301886793	41	85	4032.037735849052	0	0	165.702830	98.3423838	0	.234301781	.260913835
TRA	TRA	TRA	Transient	1	1	123	241	925	1861	113.396226	23891.2547	159628.528	172.571382	194.237843	113.396226	.515463918	2.88191190	5.88647066	BEN	BEN	Standard Retail	TRA / BEN	0	0	13	28	1869.716981132077	142	281	22921.990566037734	0	0	143.824383	161.422469	0	.304592315	.903652794
TRA	TRA	TRA	Transient	1	1	123	241	925	1861	113.396226	23891.2547	159628.528	172.571382	194.237843	113.396226	.515463918	2.88191190	5.88647066	BMR	BMR	Rewards Redemptions	TRA / BMR	0	0	0	0	0	55	99	8511.226415094317	0	0	0	154.749571	0	0	.350006364
TRA	TRA	TRA	Transient	1	1	123	241	925	1861	113.396226	23891.2547	159628.528	172.571382	194.237843	113.396226	.515463918	2.88191190	5.88647066	ECM	ECM	eChannel Retail	TRA / ECM	0	0	21	51	4756.96226415094	170	331	29831.650943396195	0	0	226.522013	175.480300	0	.492033739	1.08183785
TRA	TRA	TRA	Transient	1	1	123	241	925	1861	113.396226	23891.2547	159628.528	172.571382	194.237843	113.396226	.515463918	2.88191190	5.88647066	OTD	OTD	Other Discounts	TRA / OTD	0	0	6	12	671.132075471698	34	67	3222.424528301889	0	0	111.855346	94.7771920	0	.140581068	.216367570
TRA	TRA	TRA	Transient	1	1	123	241	925	1861	113.396226	23891.2547	159628.528	172.571382	194.237843	113.396226	.515463918	2.88191190	5.88647066	PKG	PKG	Packages	TRA / PKG	1	113.396226415094	32	54	6059.056603773584	128	249	19791.226415094338	1	113.396226	189.345519	154.618956	.515463918	.749765698	.814560265
TRA	TRA	TRA	Transient	1	1	123	241	925	1861	113.396226	23891.2547	159628.528	172.571382	194.237843	113.396226	.515463918	2.88191190	5.88647066	REG	REG	Premium Retail	TRA / REG	0	0	38	70	8499.339622641501	329	700	67517.641509433976	0	0	223.666832	205.220795	0	.890346767	2.09367443
TRA	TRA	TRA	Transient	1	1	123	241	925	1861	113.396226	23891.2547	159628.528	172.571382	194.237843	113.396226	.515463918	2.88191190	5.88647066	SPE	SPE	Special Corporate	TRA / SPE	0	0	1	2	123.962264150943	2	3	365.471698113207	0	0	123.962264	182.735849	0	.023430178	.012727504
TRA	TRA	TRA	Transient	1	1	123	241	925	1861	113.396226	23891.2547	159628.528	172.571382	194.237843	113.396226	.515463918	2.88191190	5.88647066	WHO	WHO	Wholesaler	TRA / WHO	0	0	2	4	254.056603773584	22	43	3263.06603773585	0	0	127.028302	148.321184	0	.046860356	.140002546
S_DAY_ROOMS	S_DAY_PERSONS	S_MONTH_RMS	S_MONTH_PRS	S_YEAR_RMS	S_YEAR_PRS	S_DAY_ARR	S_MONTH_ARR	S_YEAR_ARR	LOGO	S_DAY_CREV	S_MONTH_CREV	S_YEAR_CREV	S_YTD_PER_OCC	S_MTD_PER_OCC	S_DAY_PER_OCC	CF_PERIOD_TEXT	CF_LEG_ROOMS_MTD	CF_LEG_REVENUE_MTD
1	1	123	241	935	1874	113.396226	194.237843	171.804046		113.396226	23891.2547	160636.783	5.95010818	2.88191190	.515463918	MONTH	Rooms Month to Date	Room Revenue Month to Date
