FLOW_THROUGH	LABEL	ORDER_BY	COMPONENTS	FEATURE_LIST	GET_ROOM_LIST_ROOM_CATEGORY	ACTIVE_DATE	DEF_OCCUPANCY	MEETINGROOM_YN	HOUSEKEEPING	SEND_TO_INTERFACE_YN	RATE_AMOUNT	GENERIC_FLAG	SHORT_DESCRIPTION	ROOM_CLASS	NUMBER_ROOMS	MAX_OCCUPANCY	MAX_ROLLAWAYS	RATE_CODE	PSUEDO_ROOM_TYPE	SUITE	YIELDABLE_YN	YIELD_CATEGORY	ROOM_CATEGORY
N	GROH	1					1	N	Y	Y		N	Deluxe Run of House	GENR	0	4				N	N		71587
N	GNNK	2		K1, N3, N6, N8	207, 208, 211, 212, 216, 220, 222, 235, 239, 305, 308, 309, 310, 312, 315, 316, 318, 319, 322, 323, 325, 326, 328, 330, 335, 339, 341, 345, 405, 408, 409, 412, 413, 414, 415, 418, 419, 422, 423, 425, 426, 428, 429, 430, 435, 439, 441, 445, 447, 449, 477, 478		1	N	Y	Y		N	Deluxe King Room	GENR	52	4				N	N		71589
N	GNND	3		N3, N8, T8, U9	203, 204, 205, 206, 209, 210, 213, 214, 218, 233, 237, 303, 304, 306, 307, 311, 313, 314, 317, 320, 321, 324, 333, 337, 343, 403, 406, 407, 410, 411, 416, 417, 420, 421, 424, 427, 433, 437, 443		1	N	Y	Y		N	Deluxe Twin Room	GENR	39	4				N	N		71588
N	DROH	4					1	N	Y	Y		N	Deluxe Natural Park Run of House	DLUX	0	4				N	N		71579
N	DLNK	6		K1, N3, N6, N8	236, 238, 240, 242, 244, 338, 340, 342, 346, 348, 352, 361, 362, 363, 364, 367, 368, 369, 370, 371, 372, 375, 376, 438, 442, 446, 448, 450, 452, 461, 462, 463, 464, 467, 468, 469, 470, 471, 472, 475, 476		1	N	Y	Y		N	Deluxe Natural Park King Room	DLUX	41	4				N	N		71580
N	DLND	7		N3, N8, T8, U9	234, 334, 336, 344, 350, 365, 366, 373, 374, 436, 440, 444, 465, 466, 473, 474		1	N	Y	Y		N	Deluxe Natural Park Twin Room	DLUX	16	4				N	N		71591
N	PROH	8					1	N	Y	Y		N	Junior Suite Run of House	PDLX	0	4				N	N		71583
N	PDNK	9		K1, N3, N6, N8	101, 102, 103, 105, 107, 108, 109, 110, 112, 113, 114, 115, 120, 122, 123, 125, 126, 128		1	N	Y	Y		N	Junior Suite King	PDLX	18	4				N	N		71582
N	PDND	10		N3, N8, T8, U9	104, 106, 111, 116, 117, 121, 124, 127, 129		1	N	Y	Y		N	Junior Suite Twin	PDLX	9	4				N	N		71581
N	EXNK	11		K1, N3, N6, N8	118, 119, 130, 131, 201, 202, 231, 232, 301, 302, 331, 332, 401, 431		1	N	Y	Y		N	Executive Suite King	EXEC	14	4				N	N		71593
N	SPNK	12		K1, N3, N6, N8	402, 432		1	N	Y	Y		N	Presidential Suite	PRES	2	4				N	N		71595
N	RCST	13		K1, N3, N6, N8	300		1	N	Y	Y		N	Imperial Suite	RCST	1	6				N	N		71597
N	AGNK	14		A5, FV, K1, N3, N5, N6, N8	347, 451		1	N	Y	Y		N	Accessible Deluxe Room	GENR	2	2				N	N		71599
N	FMLA	15	Deluxe Twin Room, Executive Suite King		2013, 2024, 2313, 3013, 3024, 3313, 4013, 4313		1	N	N	Y		N	Family Suite Non Smoking	ZZZO	8	8				Y	N		71601
N	PA	99			9201, 9202, 9203, 9205, 9206, 9207, 9304		0	N	N	Y		N	Posting Income	PSEU	7		0		PA	N	N		-3
N	PB	99					0	N	N	Y		N	Banquet Account	PSEU	0				PB	N	N		-4
N	PG	99			9600, 9601, 9602, 9603, 9604, 9605, 9606, 9607, 9608, 9609, 9610, 9611, 9612, 9613, 9614, 9615, 9616, 9617, 9618, 9619, 9620, 9621, 9622, 9623, 9624, 9625, 9626, 9627, 9628, 9629, 9630, 9631, 9632, 9633, 9634, 9635, 9636, 9637, 9638, 9639, 9640, 9641, 9642, 9643, 9644, 9645, 9646, 9647, 9648, 9649, 9650, 9651, 9652, 9653, 9654, 9655, 9656, 9657, 9658, 9659, 9660, 9661, 9662, 9663, 9664, 9665, 9666, 9667, 9668, 9669, 9670, 9671, 9672, 9673, 9674, 9675, 9676, 9677, 9678, 9679, 9680, 9681, 9682, 9683, 9684, 9685, 9686, 9687, 9688, 9689, 9690, 9691, 9692, 9693, 9694, 9695, 9696, 9697, 9698, 9699, 9700, 9701, 9702, 9703, 9704, 9705, 9706, 9707, 9708, 9709, 9710, 9711, 9712, 9713, 9714, 9715, 9716, 9717, 9718, 9719, 9720, 9721, 9722, 9723, 9724, 9725, 9726, 9727, 9728, 9729, 9730, 9731, 9732, 9733, 9734, 9735, 9736, 9737, 9738, 9739, 9740, 9741, 9742, 9743, 9744, 9745, 9746, 9747, 9748, 9749, 9750, 9751, 9752, 9753, 9754, 9755, 9756, 9757, 9758, 9759, 9760, 9761, 9762, 9763, 9764, 9765, 9766, 9767, 9768, 9769, 9770, 9771, 9772, 9773, 9774, 9775, 9776, 9777, 9778, 9779, 9780, 9781, 9782, 9783, 9784, 9785, 9786, 9787, 9788, 9789, 9790, 9791, 9792, 9793, 9794, 9795, 9796, 9797, 9798, 9799, 9800, 9801, 9802, 9803, 9804, 9805, 9806, 9807, 9808, 9809, 9810, 9811, 9812, 9813, 9814, 9815, 9816, 9817, 9818, 9819, 9820, 9821, 9822, 9823, 9824, 9825, 9826, 9827, 9828, 9829, 9830, 9831, 9832, 9833, 9834, 9835, 9836, 9837, 9838, 9839, 9840, 9841, 9842, 9843, 9844, 9845, 9846, 9847, 9848, 9849, 9850, 9851, 9852, 9853, 9854, 9855, 9856, 9857, 9858, 9859, 9860, 9861, 9862, 9863, 9864, 9865, 9866, 9867, 9868, 9869, 9870, 9871, 9872, 9873, 9874, 9875, 9876, 9877, 9878, 9879, 9880, 9881, 9882, 9883, 9884, 9885, 9886, 9887, 9888, 9889, 9890, 9891, 9892, 9893, 9894, 9895, 9896, 9897, 9898, 9899, 9900		0	N	N	Y		N	Golf Member Account	PSEU	301				PG	N	N		-7
N	PI	99			2135, 2155, 2174, 2178, 2179, 2180, 2182, 2492, 2493, 2513, 2514, 2515, 2516, 2517, 2602, 2603, 2604, 2605, 2606, 2607, 2608, 2610, 2611, 2612, 2613, 2614, 2625, 2627, 2630, 2631, 2633, 2635, 2636, 2637, 2638, 2639, 2640, 2641, 2642, 2643, 2646, 2647, 2648, 2649, 2653, 2656, 2657, 2900, 2901, 2902, 2903, 2904, 2905, 2907, 2912, 2913, 2914, 2915, 2916, 2917, 2918, 2919, 2920, 2921, 2922, 2923, 2924, 2928, 2929, 8124, 9500, 9502, 9503, 9504, 9505, 9506, 9507, 9508, 9509, 9510, 9511, 9512, 9513, 9514, 9515, 9516, 9517, 9518, 9519, 9520		0	N	N	Y		N	Interface Posting Room	PSEU	90				PI	N	N		-2
N	PM	99			9000, 9001, 9002, 9003, 9004, 9005, 9006, 9007, 9008, 9009, 9010, 9501, ROOM		0	N	N	Y		N	Posting Master	PSEU	13		0		PM	N	N		-1
N	PS	99			5000, 5001, 5002, 5003, 5004, 5005, 5006, 5007, 5008, 5009, 5010, 5011, 5012, 5013, 5014, 5015, 5100, 5101, 5102, 5103, 5104, 5105, 5106, 5107, 5108, 5109, 5110, 5111, 5112, 5113, 5114, 5115, 5116, 5117, 5118, 5119, 5120, 5121, 5122, 5123, 5124, 5125, 5126, 5127, 5128, 5129, 5130, 5131, 5132, 5133, 5134, 5135, 5136, 5137, 5138, 5139, 5140, 5141, 5142, 5143, 5144, 5200, 5201, 5202, 5203, 5204, 5205, 5206, 5207, 5208, 5209, 5210, 5211, 5212, 5213, 5214, 5215, 5216, 5217, 5218, 5219, 5220, 5221, 5222, 5223, 5224, 5225, 5226, 5227, 5228, 5229, 5230, 5231, 5232, 5233, 5234, 5235, 5236, 5237, 5238, 5239, 5240, 5300, 5301, 5302, 5303, 5304, 5305, 5306, 5307, 5308, 5309, 5310, 5311, 5312, 5313, 5314, 5315, 5316, 5317, 5318, 5319, 5320, 5321, 5322, 5323, 5324, 5325, 5326, 5327, 5328, 5329, 5400, 5500, 5700, 5800		0	N	N	Y		N	Estate Account	PSEU	136				PS	N	N		-6
N	SC	100			2, 3, ALCAN, ALPEND, ARAB, ARDIN, ARMAS, ASS, BASQUE, CDESK, CHU, CLBLGE, CLS, CLTS1, COND, COR1, COR2, COROA, CVREAL, DALV, DELXRM, DFIL, DINE, DJOA, DJOA2, DJOA23, DJOA3, DJOA34, DJOA4, DJOAA, DJOAO, DLEO, DLUI, DMAN, DPED, DSEB, ENEKO, ENKBSQ, FDJOA, FIPIT, FORTE, FTRCK, FYCAST, FYCORA, FYCRGF, FYVIS1, FYVIS2, GARAGE, GLFKIO, GML, GMOFF, HOTEL, IMSUIT, INFT, JARAD, JCERC, JDAM, JNUN, JPORC, KIDCLB, LAB, LBBH, MID, MIDTER, MIRA, MZDFLP, MZDLNR, MZMIDO, OUTCAT, PALAC, PAUMER, PENEDO, PLCXAB, PROSHP, PTACOS, RCB, SARC, SATLA, SFORM, SNOB, SPASX, SPCTBA, SPICES, SPTBA1, SRBAR, SREAL, TAMARZ, VIS1, VIS2, VIS3, WEDD1, WEDD2		1	Y	Y	Y		N	Sales Catering	PSEU	92				SC	N	N		-1875
LOGO	CF_YIELD_CAT_DESC
	
