FIRST	FIRST_DESC	SUMAMOUNTPERFIRST	SECOND	SECOND_DESC	SUMAMOUNTPERSECOND	THIRD	THIRD_DESC	SUMAMOUNTPERTHIRD	BUSINESS_FORMAT_DATE	BUSINESS_TIME	TRX_CODE	TRX_DESC	ROOM	FROM_ROOM	GUEST_FULL_NAME	CHAR_AMOUNT	TRX_DATE	AMOUNT	INSERT_DATE	ALLOTMENT_CODE	ALLOTMENT_DESCRIPTION	ALLOTMENT_HEADER_ID
10000	10000 - Alojamento Manual / Room Charge (Manual)	762.811320754717			762.811320754717			762.811320754717	20.03.21	03:26	10000	Alojamento Manual / Room Charge (Manual)	4313		Ascensao,Nuno	47.17	20-MAR-21	47.169811320755	21-MAR-21		Non-Block	
10000	10000 - Alojamento Manual / Room Charge (Manual)	762.811320754717			762.811320754717			762.811320754717	20.03.21	03:26	10000	Alojamento Manual / Room Charge (Manual)	4313		Ascensao,Nuno	94.34	20-MAR-21	94.339622641509	21-MAR-21		Non-Block	
10000	10000 - Alojamento Manual / Room Charge (Manual)	762.811320754717			762.811320754717			762.811320754717	20.03.21	03:26	10000	Alojamento Manual / Room Charge (Manual)	4313		Ascensao,Nuno	23.58	20-MAR-21	23.584905660377	21-MAR-21		Non-Block	
10000	10000 - Alojamento Manual / Room Charge (Manual)	762.811320754717			762.811320754717			762.811320754717	01.03.21	02:53	10000	Alojamento Manual / Room Charge (Manual)	300		Castro,Luis	4.72	01-MAR-21	4.716981132075	02-MAR-21		Non-Block	
10000	10000 - Alojamento Manual / Room Charge (Manual)	762.811320754717			762.811320754717			762.811320754717	01.03.21	02:53	10000	Alojamento Manual / Room Charge (Manual)	300		Castro,Luis	47.17	01-MAR-21	47.169811320755	02-MAR-21		Non-Block	
10000	10000 - Alojamento Manual / Room Charge (Manual)	762.811320754717			762.811320754717			762.811320754717	20.03.21	03:26	10000	Alojamento Manual / Room Charge (Manual)	300		Duffy,Pauric	283.02	20-MAR-21	283.018867924528	21-MAR-21		Non-Block	
10000	10000 - Alojamento Manual / Room Charge (Manual)	762.811320754717			762.811320754717			762.811320754717	20.03.21	03:26	10000	Alojamento Manual / Room Charge (Manual)	300		Duffy,Pauric	18.87	20-MAR-21	18.867924528302	21-MAR-21		Non-Block	
10000	10000 - Alojamento Manual / Room Charge (Manual)	762.811320754717			762.811320754717			762.811320754717	19.03.21	22:13	10000	Alojamento Manual / Room Charge (Manual)	331		Fernandes,Sheila	165.09	19-MAR-21	165.094339622642	19-MAR-21		Non-Block	
10000	10000 - Alojamento Manual / Room Charge (Manual)	762.811320754717			762.811320754717			762.811320754717	01.03.21	02:53	10000	Alojamento Manual / Room Charge (Manual)	478		Guerra,Juliana	47.17	01-MAR-21	47.169811320755	02-MAR-21		Non-Block	
10000	10000 - Alojamento Manual / Room Charge (Manual)	762.811320754717			762.811320754717			762.811320754717	15.03.21	16:45	10000	Alojamento Manual / Room Charge (Manual)	9600		Lowenborg,Lovisa	31.68	15-MAR-21	31.679245283019	15-MAR-21		Non-Block	
10110	10110 - RSU Alojamento / Premium Retail	9848.77358490565			9848.77358490565			9848.77358490565	20.03.21	03:26	10110	RSU Alojamento / Premium Retail	332		Albuquerque,Tiago	314.53	20-MAR-21	314.528301886792	21-MAR-21		Non-Block	
10110	10110 - RSU Alojamento / Premium Retail	9848.77358490565			9848.77358490565			9848.77358490565	19.03.21	04:50	10110	RSU Alojamento / Premium Retail	332		Albuquerque,Tiago	314.53	19-MAR-21	314.528301886792	20-MAR-21		Non-Block	
10110	10110 - RSU Alojamento / Premium Retail	9848.77358490565			9848.77358490565			9848.77358490565	13.03.21	04:34	10110	RSU Alojamento / Premium Retail	462		Assuncao,Nuno,Mr	172.08	13-MAR-21	172.075471698113	14-MAR-21		Non-Block	
10110	10110 - RSU Alojamento / Premium Retail	9848.77358490565			9848.77358490565			9848.77358490565	15.03.21	04:25	10110	RSU Alojamento / Premium Retail	363		Cabral,Maria Joana,Miss	172.08	15-MAR-21	172.075471698113	16-MAR-21		Non-Block	
10110	10110 - RSU Alojamento / Premium Retail	9848.77358490565			9848.77358490565			9848.77358490565	16.03.21	04:31	10110	RSU Alojamento / Premium Retail	363		Cabral,Maria Joana,Miss	172.08	16-MAR-21	172.075471698113	17-MAR-21		Non-Block	
10110	10110 - RSU Alojamento / Premium Retail	9848.77358490565			9848.77358490565			9848.77358490565	18.03.21	04:58	10110	RSU Alojamento / Premium Retail	464		Cardoso,Helder	154.62	18-MAR-21	154.622641509434	19-MAR-21		Non-Block	
10110	10110 - RSU Alojamento / Premium Retail	9848.77358490565			9848.77358490565			9848.77358490565	20.03.21	03:26	10110	RSU Alojamento / Premium Retail	123		Chiola,Paul,Mr	219.06	20-MAR-21	219.056603773585	21-MAR-21		Non-Block	
10110	10110 - RSU Alojamento / Premium Retail	9848.77358490565			9848.77358490565			9848.77358490565	13.03.21	04:34	10110	RSU Alojamento / Premium Retail	364		Crespo,Pedro	162.64	13-MAR-21	162.641509433962	14-MAR-21		Non-Block	
10110	10110 - RSU Alojamento / Premium Retail	9848.77358490565			9848.77358490565			9848.77358490565	20.03.21	03:26	10110	RSU Alojamento / Premium Retail	300		Duffy,Pauric	166.42	20-MAR-21	166.415094339623	21-MAR-21		Non-Block	
10110	10110 - RSU Alojamento / Premium Retail	9848.77358490565			9848.77358490565			9848.77358490565	12.03.21	11:10	10110	RSU Alojamento / Premium Retail	372		Farinha,Lidia Priscila	162.64	12-MAR-21	162.641509433962	12-MAR-21		Non-Block	
10110	10110 - RSU Alojamento / Premium Retail	9848.77358490565			9848.77358490565			9848.77358490565	20.03.21	03:26	10110	RSU Alojamento / Premium Retail	469		Fernandes,Bruno	140.00	20-MAR-21	140	21-MAR-21		Non-Block	
10110	10110 - RSU Alojamento / Premium Retail	9848.77358490565			9848.77358490565			9848.77358490565	19.03.21	04:50	10110	RSU Alojamento / Premium Retail	469		Fernandes,Bruno	140.00	19-MAR-21	140	20-MAR-21		Non-Block	
10110	10110 - RSU Alojamento / Premium Retail	9848.77358490565			9848.77358490565			9848.77358490565	15.03.21	04:25	10110	RSU Alojamento / Premium Retail	126		Ferreira,Alberto	47.81	15-MAR-21	47.811320754717	16-MAR-21		Non-Block	
10110	10110 - RSU Alojamento / Premium Retail	9848.77358490565			9848.77358490565			9848.77358490565	15.03.21	04:25	10110	RSU Alojamento / Premium Retail	126		Ferreira,Alberto	191.25	15-MAR-21	191.245283018868	16-MAR-21		Non-Block	
10110	10110 - RSU Alojamento / Premium Retail	9848.77358490565			9848.77358490565			9848.77358490565	06.03.21	02:28	10110	RSU Alojamento / Premium Retail	372		Fonseca,Carolina	162.64	06-MAR-21	162.641509433962	07-MAR-21		Non-Block	
10110	10110 - RSU Alojamento / Premium Retail	9848.77358490565			9848.77358490565			9848.77358490565	13.03.21	04:34	10110	RSU Alojamento / Premium Retail	464		Galvao,Stephane,MONSIEUR	154.91	13-MAR-21	154.905660377358	14-MAR-21		Non-Block	
10110	10110 - RSU Alojamento / Premium Retail	9848.77358490565			9848.77358490565			9848.77358490565	12.03.21	03:38	10110	RSU Alojamento / Premium Retail	464		Galvao,Stephane,MONSIEUR	154.91	12-MAR-21	154.905660377358	13-MAR-21		Non-Block	
10110	10110 - RSU Alojamento / Premium Retail	9848.77358490565			9848.77358490565			9848.77358490565	11.03.21	03:55	10110	RSU Alojamento / Premium Retail	464		Galvao,Stephane,MONSIEUR	154.91	11-MAR-21	154.905660377358	12-MAR-21		Non-Block	
10110	10110 - RSU Alojamento / Premium Retail	9848.77358490565			9848.77358490565			9848.77358490565	12.03.21	03:38	10110	RSU Alojamento / Premium Retail	478		Gil Yanez,Gabriel	162.64	12-MAR-21	162.641509433962	13-MAR-21		Non-Block	
10110	10110 - RSU Alojamento / Premium Retail	9848.77358490565			9848.77358490565			9848.77358490565	08.03.21	20:45	10110	RSU Alojamento / Premium Retail	300		Goncalves,Margarida	263.40	08-MAR-21	263.396226415094	08-MAR-21		Non-Block	
10110	10110 - RSU Alojamento / Premium Retail	9848.77358490565			9848.77358490565			9848.77358490565	16.03.21	04:31	10110	RSU Alojamento / Premium Retail	300		Goncalves,Margarida	263.40	16-MAR-21	263.396226415094	17-MAR-21		Non-Block	
10110	10110 - RSU Alojamento / Premium Retail	9848.77358490565			9848.77358490565			9848.77358490565	13.03.21	04:34	10110	RSU Alojamento / Premium Retail	300		Goncalves,Margarida	263.40	13-MAR-21	263.396226415094	14-MAR-21		Non-Block	
10110	10110 - RSU Alojamento / Premium Retail	9848.77358490565			9848.77358490565			9848.77358490565	03.03.21	03:50	10110	RSU Alojamento / Premium Retail	300		Goncalves,Margarida	263.40	03-MAR-21	263.396226415094	04-MAR-21		Non-Block	
10110	10110 - RSU Alojamento / Premium Retail	9848.77358490565			9848.77358490565			9848.77358490565	04.03.21	03:13	10110	RSU Alojamento / Premium Retail	300		Goncalves,Margarida	263.40	04-MAR-21	263.396226415094	05-MAR-21		Non-Block	
10110	10110 - RSU Alojamento / Premium Retail	9848.77358490565			9848.77358490565			9848.77358490565	18.03.21	04:58	10110	RSU Alojamento / Premium Retail	300		Goncalves,Margarida	263.40	18-MAR-21	263.396226415094	19-MAR-21		Non-Block	
10110	10110 - RSU Alojamento / Premium Retail	9848.77358490565			9848.77358490565			9848.77358490565	17.03.21	04:15	10110	RSU Alojamento / Premium Retail	300		Goncalves,Margarida	263.40	17-MAR-21	263.396226415094	18-MAR-21		Non-Block	
10110	10110 - RSU Alojamento / Premium Retail	9848.77358490565			9848.77358490565			9848.77358490565	06.03.21	02:28	10110	RSU Alojamento / Premium Retail	300		Goncalves,Margarida	263.40	06-MAR-21	263.396226415094	07-MAR-21		Non-Block	
10110	10110 - RSU Alojamento / Premium Retail	9848.77358490565			9848.77358490565			9848.77358490565	14.03.21	04:33	10110	RSU Alojamento / Premium Retail	300		Goncalves,Margarida	263.40	14-MAR-21	263.396226415094	15-MAR-21		Non-Block	
10110	10110 - RSU Alojamento / Premium Retail	9848.77358490565			9848.77358490565			9848.77358490565	15.03.21	04:25	10110	RSU Alojamento / Premium Retail	300		Goncalves,Margarida	263.40	15-MAR-21	263.396226415094	16-MAR-21		Non-Block	
10110	10110 - RSU Alojamento / Premium Retail	9848.77358490565			9848.77358490565			9848.77358490565	05.03.21	04:23	10110	RSU Alojamento / Premium Retail	300		Goncalves,Margarida	263.40	05-MAR-21	263.396226415094	06-MAR-21		Non-Block	
10110	10110 - RSU Alojamento / Premium Retail	9848.77358490565			9848.77358490565			9848.77358490565	07.03.21	02:45	10110	RSU Alojamento / Premium Retail	300		Goncalves,Margarida	263.40	07-MAR-21	263.396226415094	08-MAR-21		Non-Block	
10110	10110 - RSU Alojamento / Premium Retail	9848.77358490565			9848.77358490565			9848.77358490565	13.03.21	04:34	10110	RSU Alojamento / Premium Retail	125	123	Guimaraes,Goncalo	80.09	13-MAR-21	80.085029912563	14-MAR-21		Non-Block	
10110	10110 - RSU Alojamento / Premium Retail	9848.77358490565			9848.77358490565			9848.77358490565	13.03.21	04:34	10110	RSU Alojamento / Premium Retail	125	122	Guimaraes,Goncalo	80.09	13-MAR-21	80.085029912563	14-MAR-21		Non-Block	
10110	10110 - RSU Alojamento / Premium Retail	9848.77358490565			9848.77358490565			9848.77358490565	13.03.21	04:34	10110	RSU Alojamento / Premium Retail	125		Guimaraes,Goncalo	298.02	13-MAR-21	298.018867924528	14-MAR-21		Non-Block	
10110	10110 - RSU Alojamento / Premium Retail	9848.77358490565			9848.77358490565			9848.77358490565	10.03.21	05:42	10110	RSU Alojamento / Premium Retail	470		Lage,Maria Teresa	154.91	10-MAR-21	154.905660377358	11-MAR-21		Non-Block	
10110	10110 - RSU Alojamento / Premium Retail	9848.77358490565			9848.77358490565			9848.77358490565	18.03.21	23:54	10110	RSU Alojamento / Premium Retail	472		Lage,Maria Teresa	153.96	18-MAR-21	153.962264150943	18-MAR-21		Non-Block	
10110	10110 - RSU Alojamento / Premium Retail	9848.77358490565			9848.77358490565			9848.77358490565	13.03.21	04:34	10110	RSU Alojamento / Premium Retail	122		Leitao,Rui	218.41	13-MAR-21	218.405536125173	14-MAR-21		Non-Block	
10110	10110 - RSU Alojamento / Premium Retail	9848.77358490565			9848.77358490565			9848.77358490565	12.03.21	03:38	10110	RSU Alojamento / Premium Retail	363	361	Liberal,Luis,Senhor	159.62	12-MAR-21	159.622641509434	13-MAR-21		Non-Block	
10110	10110 - RSU Alojamento / Premium Retail	9848.77358490565			9848.77358490565			9848.77358490565	12.03.21	03:38	10110	RSU Alojamento / Premium Retail	363		Liberal,Luis,Senhor	159.62	12-MAR-21	159.622641509434	13-MAR-21		Non-Block	
10110	10110 - RSU Alojamento / Premium Retail	9848.77358490565			9848.77358490565			9848.77358490565	08.03.21	03:59	10110	RSU Alojamento / Premium Retail	300		Nobrega,Manuel	198.02	08-MAR-21	198.018867924528	09-MAR-21		Non-Block	
10110	10110 - RSU Alojamento / Premium Retail	9848.77358490565			9848.77358490565			9848.77358490565	20.03.21	03:26	10110	RSU Alojamento / Premium Retail	477		Quaresma,Sofia	154.91	20-MAR-21	154.905660377358	21-MAR-21		Non-Block	
10110	10110 - RSU Alojamento / Premium Retail	9848.77358490565			9848.77358490565			9848.77358490565	12.03.21	03:38	10110	RSU Alojamento / Premium Retail	300		Ramos,Pedro Miguel	281.51	12-MAR-21	281.509433962264	13-MAR-21		Non-Block	
10110	10110 - RSU Alojamento / Premium Retail	9848.77358490565			9848.77358490565			9848.77358490565	06.03.21	02:28	10110	RSU Alojamento / Premium Retail	472		Sa,Tiago	149.43	06-MAR-21	149.433962264151	07-MAR-21		Non-Block	
10110	10110 - RSU Alojamento / Premium Retail	9848.77358490565			9848.77358490565			9848.77358490565	02.03.21	04:30	10110	RSU Alojamento / Premium Retail	300		Shaked,Josef	314.53	02-MAR-21	314.528301886792	03-MAR-21		Non-Block	
10110	10110 - RSU Alojamento / Premium Retail	9848.77358490565			9848.77358490565			9848.77358490565	18.03.21	04:58	10110	RSU Alojamento / Premium Retail	125		Sousa,Filipe	210.75	18-MAR-21	210.754716981132	19-MAR-21		Non-Block	
10110	10110 - RSU Alojamento / Premium Retail	9848.77358490565			9848.77358490565			9848.77358490565	19.03.21	04:50	10110	RSU Alojamento / Premium Retail	125		Sousa,Filipe	210.75	19-MAR-21	210.754716981132	20-MAR-21		Non-Block	
10110	10110 - RSU Alojamento / Premium Retail	9848.77358490565			9848.77358490565			9848.77358490565	13.03.21	04:34	10110	RSU Alojamento / Premium Retail	123		Vieira,Sergio	218.41	13-MAR-21	218.405536125173	14-MAR-21		Non-Block	
10110	10110 - RSU Alojamento / Premium Retail	9848.77358490565			9848.77358490565			9848.77358490565	19.03.21	04:50	10110	RSU Alojamento / Premium Retail	462		Vilela,Cristina	162.64	19-MAR-21	162.641509433962	20-MAR-21		Non-Block	
10110	10110 - RSU Alojamento / Premium Retail	9848.77358490565			9848.77358490565			9848.77358490565	20.03.21	03:26	10110	RSU Alojamento / Premium Retail	462		Vilela,Cristina	162.64	20-MAR-21	162.641509433962	21-MAR-21		Non-Block	
10120	10120 - COR Alojamento / Standard Retail	1869.716981132077			1869.716981132077			1869.716981132077	06.03.21	02:28	10120	COR Alojamento / Standard Retail	364		Andrade,Diana	154.62	06-MAR-21	154.622641509434	07-MAR-21		Non-Block	
10120	10120 - COR Alojamento / Standard Retail	1869.716981132077			1869.716981132077			1869.716981132077	18.03.21	04:58	10120	COR Alojamento / Standard Retail	468		Malva,Paulo	144.72	18-MAR-21	144.716981132075	19-MAR-21		Non-Block	
10120	10120 - COR Alojamento / Standard Retail	1869.716981132077			1869.716981132077			1869.716981132077	12.03.21	03:38	10120	COR Alojamento / Standard Retail	468		Mello,Leticia	147.36	12-MAR-21	147.358490566038	13-MAR-21		Non-Block	
10120	10120 - COR Alojamento / Standard Retail	1869.716981132077			1869.716981132077			1869.716981132077	11.03.21	03:55	10120	COR Alojamento / Standard Retail	468		Mello,Leticia	147.36	11-MAR-21	147.358490566038	12-MAR-21		Non-Block	
10120	10120 - COR Alojamento / Standard Retail	1869.716981132077			1869.716981132077			1869.716981132077	13.03.21	04:34	10120	COR Alojamento / Standard Retail	369		Menezes Saias,Ines	154.62	13-MAR-21	154.622641509434	14-MAR-21		Non-Block	
10120	10120 - COR Alojamento / Standard Retail	1869.716981132077			1869.716981132077			1869.716981132077	06.03.21	02:28	10120	COR Alojamento / Standard Retail	464		Mimoso,Ines	154.62	06-MAR-21	154.622641509434	07-MAR-21		Non-Block	
10120	10120 - COR Alojamento / Standard Retail	1869.716981132077			1869.716981132077			1869.716981132077	05.03.21	04:23	10120	COR Alojamento / Standard Retail	464		Mimoso,Ines	154.62	05-MAR-21	154.622641509434	06-MAR-21		Non-Block	
10120	10120 - COR Alojamento / Standard Retail	1869.716981132077			1869.716981132077			1869.716981132077	08.03.21	03:59	10120	COR Alojamento / Standard Retail	300	362	Nobrega,Manuel	154.62	08-MAR-21	154.622641509434	09-MAR-21		Non-Block	
10120	10120 - COR Alojamento / Standard Retail	1869.716981132077			1869.716981132077			1869.716981132077	19.03.21	04:50	10120	COR Alojamento / Standard Retail	370		Obrien,Andrew	154.62	19-MAR-21	154.622641509434	20-MAR-21		Non-Block	
10120	10120 - COR Alojamento / Standard Retail	1869.716981132077			1869.716981132077			1869.716981132077	05.03.21	04:23	10120	COR Alojamento / Standard Retail	470		Pinto,Ricardo Jorge	155.09	05-MAR-21	155.094339622642	06-MAR-21		Non-Block	
10120	10120 - COR Alojamento / Standard Retail	1869.716981132077			1869.716981132077			1869.716981132077	13.03.21	04:34	10120	COR Alojamento / Standard Retail	371		Ramos,Luis	154.62	13-MAR-21	154.622641509434	14-MAR-21		Non-Block	
10120	10120 - COR Alojamento / Standard Retail	1869.716981132077			1869.716981132077			1869.716981132077	06.03.21	02:28	10120	COR Alojamento / Standard Retail	467		Ropschitz,Miriam	96.42	06-MAR-21	96.415094339623	07-MAR-21		Non-Block	
10120	10120 - COR Alojamento / Standard Retail	1869.716981132077			1869.716981132077			1869.716981132077	07.03.21	02:45	10120	COR Alojamento / Standard Retail	467		Ropschitz,Miriam	96.42	07-MAR-21	96.415094339623	08-MAR-21		Non-Block	
10130	10130 - SPE Alojamento / Special Corporate	123.962264150943			123.962264150943			123.962264150943	15.03.21	04:25	10130	SPE Alojamento / Special Corporate	372		Oliveira,Julio	123.96	15-MAR-21	123.962264150943	16-MAR-21		Non-Block	
10150	10150 - DIS Alojamento / Discount Rate	5209.433962264151			5209.433962264151			5209.433962264151	18.03.21	04:58	10150	DIS Alojamento / Discount Rate	461		Alkindi,Umneya	130.38	18-MAR-21	130.377358490566	19-MAR-21		Non-Block	
10150	10150 - DIS Alojamento / Discount Rate	5209.433962264151			5209.433962264151			5209.433962264151	19.03.21	04:50	10150	DIS Alojamento / Discount Rate	461		Alkindi,Umneya	130.38	19-MAR-21	130.377358490566	20-MAR-21		Non-Block	
10150	10150 - DIS Alojamento / Discount Rate	5209.433962264151			5209.433962264151			5209.433962264151	17.03.21	04:15	10150	DIS Alojamento / Discount Rate	461		Alkindi,Umneya	130.38	17-MAR-21	130.377358490566	18-MAR-21		Non-Block	
10150	10150 - DIS Alojamento / Discount Rate	5209.433962264151			5209.433962264151			5209.433962264151	20.03.21	03:26	10150	DIS Alojamento / Discount Rate	478		Allen,John,Mr	113.40	20-MAR-21	113.396226415094	21-MAR-21		Non-Block	
10150	10150 - DIS Alojamento / Discount Rate	5209.433962264151			5209.433962264151			5209.433962264151	22.03.21	02:38	10150	DIS Alojamento / Discount Rate	478		Allen,John,Mr	113.40	22-MAR-21	113.396226415094	23-MAR-21		Non-Block	
10150	10150 - DIS Alojamento / Discount Rate	5209.433962264151			5209.433962264151			5209.433962264151	21.03.21	02:17	10150	DIS Alojamento / Discount Rate	478		Allen,John,Mr	113.40	21-MAR-21	113.396226415094	22-MAR-21		Non-Block	
10150	10150 - DIS Alojamento / Discount Rate	5209.433962264151			5209.433962264151			5209.433962264151	19.03.21	04:50	10150	DIS Alojamento / Discount Rate	478		Allen,John,Mr	113.40	19-MAR-21	113.396226415094	20-MAR-21		Non-Block	
10150	10150 - DIS Alojamento / Discount Rate	5209.433962264151			5209.433962264151			5209.433962264151	10.03.21	05:42	10150	DIS Alojamento / Discount Rate	463		Barbosa,Amarildo	107.74	10-MAR-21	107.735849056604	11-MAR-21		Non-Block	
10150	10150 - DIS Alojamento / Discount Rate	5209.433962264151			5209.433962264151			5209.433962264151	20.03.21	03:26	10150	DIS Alojamento / Discount Rate	9600	464	Batista,Pedro	111.32	20-MAR-21	111.320754716981	21-MAR-21		Non-Block	
10150	10150 - DIS Alojamento / Discount Rate	5209.433962264151			5209.433962264151			5209.433962264151	12.03.21	03:38	10150	DIS Alojamento / Discount Rate	472		Coelho Alves,Paulo	136.23	12-MAR-21	136.22641509434	13-MAR-21		Non-Block	
10150	10150 - DIS Alojamento / Discount Rate	5209.433962264151			5209.433962264151			5209.433962264151	13.03.21	04:34	10150	DIS Alojamento / Discount Rate	361		Coelho Alves,Paulo	136.23	13-MAR-21	136.22641509434	14-MAR-21		Non-Block	
10150	10150 - DIS Alojamento / Discount Rate	5209.433962264151			5209.433962264151			5209.433962264151	14.03.21	04:33	10150	DIS Alojamento / Discount Rate	361		Coelho Alves,Paulo	136.23	14-MAR-21	136.22641509434	15-MAR-21		Non-Block	
10150	10150 - DIS Alojamento / Discount Rate	5209.433962264151			5209.433962264151			5209.433962264151	20.03.21	03:26	10150	DIS Alojamento / Discount Rate	472		Costa,Edgar	111.70	20-MAR-21	111.698113207547	21-MAR-21		Non-Block	
10150	10150 - DIS Alojamento / Discount Rate	5209.433962264151			5209.433962264151			5209.433962264151	11.03.21	03:55	10150	DIS Alojamento / Discount Rate	462		Costa,Edgar	111.70	11-MAR-21	111.698113207547	12-MAR-21		Non-Block	
10150	10150 - DIS Alojamento / Discount Rate	5209.433962264151			5209.433962264151			5209.433962264151	13.03.21	04:34	10150	DIS Alojamento / Discount Rate	477		Elnaggar,Ahmed,Mr	189.06	13-MAR-21	189.056603773585	14-MAR-21		Non-Block	
10150	10150 - DIS Alojamento / Discount Rate	5209.433962264151			5209.433962264151			5209.433962264151	15.03.21	04:25	10150	DIS Alojamento / Discount Rate	477		Elnaggar,Ahmed,Mr	183.21	15-MAR-21	183.207547169811	16-MAR-21		Non-Block	
10150	10150 - DIS Alojamento / Discount Rate	5209.433962264151			5209.433962264151			5209.433962264151	17.03.21	22:48	10150	DIS Alojamento / Discount Rate	477		Elnaggar,Ahmed,Mr	183.21	17-MAR-21	183.207547169811	17-MAR-21		Non-Block	
10150	10150 - DIS Alojamento / Discount Rate	5209.433962264151			5209.433962264151			5209.433962264151	14.03.21	04:33	10150	DIS Alojamento / Discount Rate	477		Elnaggar,Ahmed,Mr	189.06	14-MAR-21	189.056603773585	15-MAR-21		Non-Block	
10150	10150 - DIS Alojamento / Discount Rate	5209.433962264151			5209.433962264151			5209.433962264151	16.03.21	04:31	10150	DIS Alojamento / Discount Rate	477		Elnaggar,Ahmed,Mr	183.21	16-MAR-21	183.207547169811	17-MAR-21		Non-Block	
10150	10150 - DIS Alojamento / Discount Rate	5209.433962264151			5209.433962264151			5209.433962264151	16.03.21	04:31	10150	DIS Alojamento / Discount Rate	478		Elnaggar,Mohamed	189.06	16-MAR-21	189.056603773585	17-MAR-21		Non-Block	
10150	10150 - DIS Alojamento / Discount Rate	5209.433962264151			5209.433962264151			5209.433962264151	14.03.21	04:33	10150	DIS Alojamento / Discount Rate	478		Elnaggar,Mohamed	189.06	14-MAR-21	189.056603773585	15-MAR-21		Non-Block	
10150	10150 - DIS Alojamento / Discount Rate	5209.433962264151			5209.433962264151			5209.433962264151	13.03.21	04:34	10150	DIS Alojamento / Discount Rate	300		Elnaggar,Mohamed	189.06	13-MAR-21	189.056603773585	14-MAR-21		Non-Block	
10150	10150 - DIS Alojamento / Discount Rate	5209.433962264151			5209.433962264151			5209.433962264151	17.03.21	22:49	10150	DIS Alojamento / Discount Rate	478		Elnaggar,Mohamed	189.06	17-MAR-21	189.056603773585	17-MAR-21		Non-Block	
10150	10150 - DIS Alojamento / Discount Rate	5209.433962264151			5209.433962264151			5209.433962264151	15.03.21	04:25	10150	DIS Alojamento / Discount Rate	478		Elnaggar,Mohamed	189.06	15-MAR-21	189.056603773585	16-MAR-21		Non-Block	
10150	10150 - DIS Alojamento / Discount Rate	5209.433962264151			5209.433962264151			5209.433962264151	14.03.21	04:33	10150	DIS Alojamento / Discount Rate	473		Elnaggar,Mohamed Ahmed	136.23	14-MAR-21	136.22641509434	15-MAR-21		Non-Block	
10150	10150 - DIS Alojamento / Discount Rate	5209.433962264151			5209.433962264151			5209.433962264151	16.03.21	04:31	10150	DIS Alojamento / Discount Rate	473		Elnaggar,Mohamed Ahmed	136.23	16-MAR-21	136.22641509434	17-MAR-21		Non-Block	
10150	10150 - DIS Alojamento / Discount Rate	5209.433962264151			5209.433962264151			5209.433962264151	15.03.21	04:25	10150	DIS Alojamento / Discount Rate	473		Elnaggar,Mohamed Ahmed	136.23	15-MAR-21	136.22641509434	16-MAR-21		Non-Block	
10150	10150 - DIS Alojamento / Discount Rate	5209.433962264151			5209.433962264151			5209.433962264151	13.03.21	04:34	10150	DIS Alojamento / Discount Rate	473		Elnaggar,Mohamed Ahmed	136.23	13-MAR-21	136.22641509434	14-MAR-21		Non-Block	
10150	10150 - DIS Alojamento / Discount Rate	5209.433962264151			5209.433962264151			5209.433962264151	17.03.21	22:48	10150	DIS Alojamento / Discount Rate	473		Elnaggar,Mohamed Ahmed	136.23	17-MAR-21	136.22641509434	17-MAR-21		Non-Block	
10150	10150 - DIS Alojamento / Discount Rate	5209.433962264151			5209.433962264151			5209.433962264151	19.03.21	04:50	10150	DIS Alojamento / Discount Rate	300	300	Fromme,Alexander	243.58	19-MAR-21	243.584905660377	20-MAR-21		Non-Block	
10150	10150 - DIS Alojamento / Discount Rate	5209.433962264151			5209.433962264151			5209.433962264151	18.03.21	04:58	10150	DIS Alojamento / Discount Rate	300	300	Fromme,Alexander	243.58	18-MAR-21	243.584905660377	19-MAR-21		Non-Block	
10150	10150 - DIS Alojamento / Discount Rate	5209.433962264151			5209.433962264151			5209.433962264151	20.03.21	03:26	10150	DIS Alojamento / Discount Rate	300		Fromme,Alexander	243.58	20-MAR-21	243.584905660377	21-MAR-21		Non-Block	
10150	10150 - DIS Alojamento / Discount Rate	5209.433962264151			5209.433962264151			5209.433962264151	20.03.21	03:26	10150	DIS Alojamento / Discount Rate	467		Lemos,Patricia	108.87	20-MAR-21	108.867924528302	21-MAR-21		Non-Block	
10150	10150 - DIS Alojamento / Discount Rate	5209.433962264151			5209.433962264151			5209.433962264151	13.03.21	04:34	10150	DIS Alojamento / Discount Rate	474		Siopa,Francisco	119.81	13-MAR-21	119.811320754717	14-MAR-21		Non-Block	
10170	10170 - WHO Alojamento / Wholesale Rate	254.056603773584			254.056603773584			254.056603773584	06.03.21	02:28	10170	WHO Alojamento / Wholesale Rate	361		Morais,Pedro	127.03	06-MAR-21	127.028301886792	07-MAR-21		Non-Block	
10170	10170 - WHO Alojamento / Wholesale Rate	254.056603773584			254.056603773584			254.056603773584	12.03.21	03:38	10170	WHO Alojamento / Wholesale Rate	461		Vieira,Jose Carlos	127.03	12-MAR-21	127.028301886792	13-MAR-21		Non-Block	
10173	10173 - ECG Alojamento / eChannel Retail	3821.132075471695			3821.132075471695			3821.132075471695	20.03.21	03:26	10173	ECG Alojamento / eChannel Retail	4313		Ascensao,Nuno	309.06	20-MAR-21	309.056603773585	21-MAR-21		Non-Block	
10173	10173 - ECG Alojamento / eChannel Retail	3821.132075471695			3821.132075471695			3821.132075471695	20.03.21	03:26	10173	ECG Alojamento / eChannel Retail	364		Canha,Maria	154.62	20-MAR-21	154.622641509434	21-MAR-21		Non-Block	
10173	10173 - ECG Alojamento / eChannel Retail	3821.132075471695			3821.132075471695			3821.132075471695	12.03.21	03:38	10173	ECG Alojamento / eChannel Retail	370		Chibante,Claudia	173.02	12-MAR-21	173.018867924528	13-MAR-21		Non-Block	
10173	10173 - ECG Alojamento / eChannel Retail	3821.132075471695			3821.132075471695			3821.132075471695	05.03.21	15:56	10173	ECG Alojamento / eChannel Retail	468		De Lima,Marcia	154.62	05-MAR-21	154.622641509434	05-MAR-21		Non-Block	
10173	10173 - ECG Alojamento / eChannel Retail	3821.132075471695			3821.132075471695			3821.132075471695	16.03.21	04:31	10173	ECG Alojamento / eChannel Retail	300		Emauzmadruga,Joana	208.58	16-MAR-21	208.584905660377	17-MAR-21		Non-Block	
10173	10173 - ECG Alojamento / eChannel Retail	3821.132075471695			3821.132075471695			3821.132075471695	21.03.21	02:17	10173	ECG Alojamento / eChannel Retail	331		Fernandes,Sheila	249.43	21-MAR-21	249.433962264151	22-MAR-21		Non-Block	
10173	10173 - ECG Alojamento / eChannel Retail	3821.132075471695			3821.132075471695			3821.132075471695	19.03.21	04:50	10173	ECG Alojamento / eChannel Retail	331		Fernandes,Sheila	249.43	19-MAR-21	249.433962264151	20-MAR-21		Non-Block	
10173	10173 - ECG Alojamento / eChannel Retail	3821.132075471695			3821.132075471695			3821.132075471695	20.03.21	03:26	10173	ECG Alojamento / eChannel Retail	331		Fernandes,Sheila	249.43	20-MAR-21	249.433962264151	21-MAR-21		Non-Block	
10173	10173 - ECG Alojamento / eChannel Retail	3821.132075471695			3821.132075471695			3821.132075471695	01.03.21	02:53	10173	ECG Alojamento / eChannel Retail	478		Guerra,Juliana	154.62	01-MAR-21	154.622641509434	02-MAR-21		Non-Block	
10173	10173 - ECG Alojamento / eChannel Retail	3821.132075471695			3821.132075471695			3821.132075471695	08.03.21	03:59	10173	ECG Alojamento / eChannel Retail	363		Hidalgo Campos,Juan	173.02	08-MAR-21	173.018867924528	09-MAR-21		Non-Block	
10173	10173 - ECG Alojamento / eChannel Retail	3821.132075471695			3821.132075471695			3821.132075471695	15.03.21	04:25	10173	ECG Alojamento / eChannel Retail	300		Morais,Paulo	314.53	15-MAR-21	314.528301886792	16-MAR-21		Non-Block	
10173	10173 - ECG Alojamento / eChannel Retail	3821.132075471695			3821.132075471695			3821.132075471695	18.03.21	04:58	10173	ECG Alojamento / eChannel Retail	370	370	Obrien,Andrew	163.58	18-MAR-21	163.584905660377	19-MAR-21		Non-Block	
10173	10173 - ECG Alojamento / eChannel Retail	3821.132075471695			3821.132075471695			3821.132075471695	13.03.21	04:34	10173	ECG Alojamento / eChannel Retail	469		Raquel Rocha,Graca	144.72	13-MAR-21	144.716981132075	14-MAR-21		Non-Block	
10173	10173 - ECG Alojamento / eChannel Retail	3821.132075471695			3821.132075471695			3821.132075471695	12.03.21	03:38	10173	ECG Alojamento / eChannel Retail	469	467	Raquel Rocha,Graca	144.72	12-MAR-21	144.716981132075	13-MAR-21		Non-Block	
10173	10173 - ECG Alojamento / eChannel Retail	3821.132075471695			3821.132075471695			3821.132075471695	12.03.21	03:38	10173	ECG Alojamento / eChannel Retail	469		Raquel Rocha,Graca	144.72	12-MAR-21	144.716981132075	13-MAR-21		Non-Block	
10173	10173 - ECG Alojamento / eChannel Retail	3821.132075471695			3821.132075471695			3821.132075471695	13.03.21	04:34	10173	ECG Alojamento / eChannel Retail	469	467	Raquel Rocha,Graca	144.72	13-MAR-21	144.716981132075	14-MAR-21		Non-Block	
10173	10173 - ECG Alojamento / eChannel Retail	3821.132075471695			3821.132075471695			3821.132075471695	20.03.21	03:26	10173	ECG Alojamento / eChannel Retail	470		Robalo,Rita	173.02	20-MAR-21	173.018867924528	21-MAR-21		Non-Block	
10173	10173 - ECG Alojamento / eChannel Retail	3821.132075471695			3821.132075471695			3821.132075471695	06.03.21	02:28	10173	ECG Alojamento / eChannel Retail	462		Rocha,Nuno	154.62	06-MAR-21	154.622641509434	07-MAR-21		Non-Block	
10173	10173 - ECG Alojamento / eChannel Retail	3821.132075471695			3821.132075471695			3821.132075471695	07.03.21	02:45	10173	ECG Alojamento / eChannel Retail	462		Rocha,Nuno	154.62	07-MAR-21	154.622641509434	08-MAR-21		Non-Block	
10173	10173 - ECG Alojamento / eChannel Retail	3821.132075471695			3821.132075471695			3821.132075471695	12.03.21	03:38	10173	ECG Alojamento / eChannel Retail	362		Sara,Malheiro	206.04	12-MAR-21	206.037735849057	13-MAR-21		Non-Block	
10180	10180 - PKG Alojamento / Package Rate	344.33962264151			344.33962264151			344.33962264151	01.03.21	02:53	10180	PKG Alojamento / Package Rate	300		Castro,Luis	116.23	01-MAR-21	116.22641509434	02-MAR-21		Non-Block	
10180	10180 - PKG Alojamento / Package Rate	344.33962264151			344.33962264151			344.33962264151	18.03.21	04:58	10180	PKG Alojamento / Package Rate	122		Flitterman,David,Mr	228.11	18-MAR-21	228.11320754717	19-MAR-21		Non-Block	
10205	10205 - ADP Alojamento / Advance Purchase	1657.028301886793			1657.028301886793			1657.028301886793	14.03.21	04:33	10205	ADP Alojamento / Advance Purchase	471		Costa,Paulo	154.62	14-MAR-21	154.622641509434	15-MAR-21		Non-Block	
10205	10205 - ADP Alojamento / Advance Purchase	1657.028301886793			1657.028301886793			1657.028301886793	13.03.21	04:34	10205	ADP Alojamento / Advance Purchase	471		Costa,Paulo	154.62	13-MAR-21	154.622641509434	14-MAR-21		Non-Block	
10205	10205 - ADP Alojamento / Advance Purchase	1657.028301886793			1657.028301886793			1657.028301886793	19.03.21	04:50	10205	ADP Alojamento / Advance Purchase	362		Domingos,Wagner	154.62	19-MAR-21	154.622641509434	20-MAR-21		Non-Block	
10205	10205 - ADP Alojamento / Advance Purchase	1657.028301886793			1657.028301886793			1657.028301886793	20.03.21	03:26	10205	ADP Alojamento / Advance Purchase	362		Domingos,Wagner	154.62	20-MAR-21	154.622641509434	21-MAR-21		Non-Block	
10205	10205 - ADP Alojamento / Advance Purchase	1657.028301886793			1657.028301886793			1657.028301886793	13.03.21	04:34	10205	ADP Alojamento / Advance Purchase	463		Goncalves,Ines	154.62	13-MAR-21	154.622641509434	14-MAR-21		Non-Block	
10205	10205 - ADP Alojamento / Advance Purchase	1657.028301886793			1657.028301886793			1657.028301886793	14.03.21	04:33	10205	ADP Alojamento / Advance Purchase	463		Goncalves,Ines	154.62	14-MAR-21	154.622641509434	15-MAR-21		Non-Block	
10205	10205 - ADP Alojamento / Advance Purchase	1657.028301886793			1657.028301886793			1657.028301886793	10.03.21	05:42	10205	ADP Alojamento / Advance Purchase	300		Nataf,Olivier	281.98	10-MAR-21	281.981132075472	11-MAR-21		Non-Block	
10205	10205 - ADP Alojamento / Advance Purchase	1657.028301886793			1657.028301886793			1657.028301886793	21.03.21	02:17	10205	ADP Alojamento / Advance Purchase	468		Palha,Eva	154.62	21-MAR-21	154.622641509434	22-MAR-21		Non-Block	
10205	10205 - ADP Alojamento / Advance Purchase	1657.028301886793			1657.028301886793			1657.028301886793	20.03.21	03:26	10205	ADP Alojamento / Advance Purchase	468		Palha,Eva	154.62	20-MAR-21	154.622641509434	21-MAR-21		Non-Block	
10205	10205 - ADP Alojamento / Advance Purchase	1657.028301886793			1657.028301886793			1657.028301886793	17.03.21	04:15	10205	ADP Alojamento / Advance Purchase	465		Prates,Sarah	138.07	17-MAR-21	138.066037735849	18-MAR-21		Non-Block	
10990	10990 - Acerto Alojamento Ind / Rebate Transient	-50			-50			-50	16.03.21	11:46	10990	Acerto Alojamento Ind / Rebate Transient	126		Ferreira,Alberto	-50.00	16-MAR-21	-50	16-MAR-21		Non-Block	
16101	16101 - Attrition No-Show / Guaranteed No Show (VAT)	466.981132075472			466.981132075472			466.981132075472	02.03.21	11:34	16101	Attrition No-Show / Guaranteed No Show (VAT)	9001		Guimaraes,Goncalo	250.00	02-MAR-21	250	02-MAR-21		Non-Block	
16101	16101 - Attrition No-Show / Guaranteed No Show (VAT)	466.981132075472			466.981132075472			466.981132075472	22.03.21	12:49	16101	Attrition No-Show / Guaranteed No Show (VAT)	9611		Pinto,Pedro	216.98	22-MAR-21	216.981132075472	22-MAR-21		Non-Block	
16191	16191 - Acerto Attrition No Show / Rebate Guaranteed No Show (VAT)	-927.830188679246			-927.830188679246			-927.830188679246	10.03.21	14:33	16191	Acerto Attrition No Show / Rebate Guaranteed No Show (VAT)	9600		Guimaraes,Goncalo	-250.00	10-MAR-21	-250	10-MAR-21		Non-Block	
16191	16191 - Acerto Attrition No Show / Rebate Guaranteed No Show (VAT)	-927.830188679246			-927.830188679246			-927.830188679246	10.03.21	14:32	16191	Acerto Attrition No Show / Rebate Guaranteed No Show (VAT)	9600		Guimaraes,Goncalo	-225.00	10-MAR-21	-225	10-MAR-21		Non-Block	
16191	16191 - Acerto Attrition No Show / Rebate Guaranteed No Show (VAT)	-927.830188679246			-927.830188679246			-927.830188679246	11.03.21	16:10	16191	Acerto Attrition No Show / Rebate Guaranteed No Show (VAT)	9600		Leitao,Rui	-226.42	11-MAR-21	-226.415094339623	11-MAR-21		Non-Block	
16191	16191 - Acerto Attrition No Show / Rebate Guaranteed No Show (VAT)	-927.830188679246			-927.830188679246			-927.830188679246	11.03.21	16:36	16191	Acerto Attrition No Show / Rebate Guaranteed No Show (VAT)	9600		Vieira,Sergio	-226.42	11-MAR-21	-226.415094339623	11-MAR-21		Non-Block	
SUMAMOUNTPERREPORT	CF_LOGO
23380.405660377346	
